(---------------------------------------------------------------------)
(                                                                     )
(    CREATE SYMBOL                                                    )
(                                                                     )
(    Drawing          : oled128x32.dra                                )
(    Software Version : 16.6P004                                      )
(    Date/Time        : Wed Nov 15 17:33:27 2017                      )
(                                                                     )
(---------------------------------------------------------------------)


Create Symbol of type: PACKAGE
    Directory = G:/Cadence/SPB_Data/Library/Footprint
    Name      = oled128x32.psm
    User      = Khanh
    Machine   = DESKTOP-DU00OF9


Create symbol started.
 

Create symbol completed.

